user_id,type,val1,val2
7354,A,0.05314941508499,2
8924,E,0.240347893474867,5
5647,U,0.77899793868474,3
9500,E,0.016914123654749,9
8089,U,0.011986834824514,1
6510,A,0.106990251226009,10
8379,E,0.146533704822459,10
5549,U,0.204052412498814,3
5526,U,0.049070762808623,3
5283,A,0.664971543188631,8
8387,E,0.952489585109756,6
5736,U,0.93320362877751,1
8332,U,0.498408492791662,6
5919,U,0.984270208689368,4
9743,E,0.478694616113629,1
8317,A,0.199087035389851,6
6152,E,0.813143173524504,4
6591,A,0.045662430090878,9
9651,E,0.194330427524325,1
9698,A,0.202727902444068,7
5466,O,0.986816927527058,8
7719,O,0.343995328066466,5
9459,A,0.488683471594324,9
6557,E,0.286016200688099,6
6793,O,0.830406417090839,3
6995,A,0.788863373922522,8
6390,A,0.84315200872268,2
7422,E,0.875703942260014,9
9385,A,0.858071690117146,1
9420,E,0.508976501915998,7
5235,A,0.099879375564902,7
7483,A,0.925141381408226,5
6326,E,0.480816181979589,2
8756,A,0.936873168089375,1
7054,A,0.610810762023232,4
9801,O,0.887743630190719,6
5589,E,0.425866946022453,4
5259,A,0.032237720923981,1
8781,A,0.732062392019278,1
9843,E,0.442732091055909,5
5309,O,0.027138530018414,8
5236,I,0.531997023256468,2
8882,A,0.922540735164458,8
6004,A,0.31768784247036,5
5086,I,0.390510288024395,9
9472,O,0.34548683675614,1
9079,A,0.91005004387692,9
9524,I,0.23770007817277,1
6273,A,0.846271451988881,6
