customer_id,last_name,first_name,title,telephone,email
1,Sanchez,Maria,Dr,525548311005,maria.sanchez@domain.com
2,Moreno,Antonio,Sr,525574501206,antonio.moreno@domain.com
3,Martinez,Claudia,Sra,525545135574,claudia.martinez@domain.com
4,Silva,Juan,Sr,525591780044,juan.silva@domain.com
5,Perez,Olga,Sra,525578210015,olga.perez@domain.com
6,Garcia,Susana,Sra,525579985422,susana.garcia@domain.com
7,Hernandez,Juan,Sr,525570849165,juan.hernandez@domain.com
8,Flores,Fabiola,Ing,525598787105,fabiola.flores@domain.com
9,Sanchez,Rosa,Sra,525533485178,rosa.sanchez@domain.com
10,Santos,Fabian,Sr,525548887120,fabian.santos@domain.com
11,Lopez,Jose,Sr,525518785231,jose.lopez@domain.com
12,Gonzalez,Juan,Sr,525534668751,juan.gonzalez@domain.com
13,Sanchez,Carmen,Lic,525502105159,carmen.sanchez@domain.com
14,Torres,Maria,Sra,525536764811,maria.torres@domain.com
15,Fernandez,Teresa,Sra,525522654881,teresa.fernandez@domain.com
16,Martinez,Carlos,Sr,525559446674,carlos.martinez@domain.com
17,Gomez,Jorge,Sr,525566201348,jorge.gomez@domain.com
18,Garcia,Joaquin,Sr,525509803510,joaquin.garcia@domain.com
19,Lopez,Fernanda,Dr,525589984502,fernanda.lopez@domain.com
20,Sanchez,Jose,Sr,525537714984,jose.sanchez@domain.com
21,Marquez,Ana,Sra,525523523185,ana.marquez@domain.com
22,Ramos,Melisa,Sra,525598777891,melisa.ramos@domain.com
23,Morales,Fernando,Ing,525500548034,fernando.morales@domain.com
24,Aguilar,Diego,Lic,525595135462,diego.aguilar@domain.com
25,Hernandez,Martha,Lic,525568450221,martha.hernandez@domain.com
